dev\lookus\di01_tarea\Di01_tarea.class
dev\lookus\di01_tarea\ReservasForm$7.class
dev\lookus\di01_tarea\ReservasForm$6.class
dev\lookus\di01_tarea\ReservasForm$1.class
dev\lookus\di01_tarea\ReservasForm$11.class
dev\lookus\di01_tarea\ReservasForm$8.class
dev\lookus\di01_tarea\ReservasForm$2.class
dev\lookus\di01_tarea\ReservasForm$4.class
dev\lookus\di01_tarea\ReservasForm$3.class
dev\lookus\di01_tarea\ReservasForm$5.class
dev\lookus\di01_tarea\ReservasForm$10.class
dev\lookus\di01_tarea\ReservasForm.class
dev\lookus\di01_tarea\ReservasForm$9.class
